    {
      "repeaters": {
        "SonyTV": {
          "VolumeUp": true,
          "VolumeDown": true
        }
      },
      "macros": {
        "Play Xbox 360": [
          [ "SonyTV", "Power" ],
          [ "delay", 500 ],
          [ "SonyTV", "Xbox360" ],
          [ "Yamaha", "Power" ],
          [ "delay", 250 ],
          [ "Yamaha", "Xbox360" ],
          [ "Xbox360", "Power" ]
        ],
        "Listen to Music": [
          [ "Yamaha", "Power" ],
          [ "delay", 500 ],
          [ "Yamaha", "AirPlay" ]
        ]
      },
      "commandLabels": {
        "Yamaha": {
          "Power": "Power",
          "Xbox360": "Xbox 360",
          "VolumeUp": "Volume Up",
          "VolumeDown": "Volume Down"
        }
      },
      "remoteLabels": {
         "Xbox360": "Xbox 360"
      }
    }
